(* Implementation of SG4_ExceptionAlarmHandler *)
(************************************************************************************************************************)
(* Object name: SG4_ExceptionAlarmHandler                                                                               *)
(* Author:      Mario Felius                                                                                            *)
(* Site:        CFS Bakel                                                                                               *)
(* Created:     26-feb-2007                                                                                             *)
(* Restriction: Must run in the 1000 ms task class or faster.                                                           *)
(* Description: Library function block for handling SG4 exception alarms.                                               *)
(*                                                                                                                      *)
(*----------------------------------------------------------------------------------------------------------------------*)
(* Additional information:                                                                                              *)
(*                                                                                                                      *)
(* There is none.                                                                                                       *)
(*                                                                                                                      *)
(*----------------------------------------------------------------------------------------------------------------------*)
(* Version 1.00   26-feb-2007 Mario Felius                            Development tool: B&R Automation Studio V2.5.2.18 *)
(*                                                                                                                      *)
(* First release.                                                                                                       *)
(************************************************************************************************************************)



(* Implementation of SG4_ExceptionAlarmTrigger *)
(************************************************************************************************************************)
(* Object name: SG4_ExceptionAlarmTrigger                                                                               *)
(* Author:      Mario Felius                                                                                            *)
(* Site:        CFS Bakel                                                                                               *)
(* Created:     26-feb-2007                                                                                             *)
(* Restriction: Must run in the exception task only.                                                                    *)
(* Description: Library function block for triggering SG4 exception alarms.                                             *)
(*                                                                                                                      *)
(*----------------------------------------------------------------------------------------------------------------------*)
(* Additional information:                                                                                              *)
(*                                                                                                                      *)
(* This routine triggers an alarm and increments the exception counter.                                                 *)
(* The following exceptions are supported:                                                                              *)
(*                                                                                                                      *)
(*                                                                                                                      *)
(* Exception    Symbolic name                  Description                                                              *)
(*                                                                                                                      *)
(*    2         CFS_EXC_BUS_ERROR             Bus error                                                                 *)
(*    5         CFS_EXC_DIVISION_BY_ZERO      Division by zero                                                          *)
(*    145       CFS_EXC_MAX_CYCLETIME        Cycle time violation (any task)                                            *)
(*    151       CFS_EXC_MAX_CYCLETIME_TC_1   Cycle time violation for task class 1                                      *)
(*    152       CFS_EXC_MAX_CYCLETIME_TC_2   Cycle time violation for task class 2                                      *)
(*    153       CFS_EXC_MAX_CYCLETIME_TC_3   Cycle time violation for task class 3                                      *)
(*    154       CFS_EXC_MAX_CYCLETIME_TC_4   Cycle time violation for task class 4                                      *)
(*    155       CFS_EXC_MAX_CYCLETIME_TC_5   Cycle time violation for task class 5                                      *)
(*    156       CFS_EXC_MAX_CYCLETIME_TC_6   Cycle time violation for task class 6                                      *)
(*    157       CFS_EXC_MAX_CYCLETIME_TC_7   Cycle time violation for task class 7                                      *)
(*    158       CFS_EXC_MAX_CYCLETIME_TC_8   Cycle time violation for task class 8                                      *)
(*                                                                                                                      *)
(*----------------------------------------------------------------------------------------------------------------------*)
(* Version 1.00   26-feb-2007 Mario Felius                            Development tool: B&R Automation Studio V2.5.2.18 *)
(*                                                                                                                      *)
(* First release.                                                                                                       *)
(************************************************************************************************************************)