Library List, V30
FW;C:\BrAutomation\SafeDESIGNER 4.3\SAFEPROG\PLC\FW_LIB\PLCopen_SF;PLCopen_SF;3
FW;C:\BrAutomation\SafeDESIGNER 4.3\SafePROG\PLC\SafePCOS_31;SafePCOS_31;0
FW;C:\BrAutomation\SafeDESIGNER 4.3\SafePROG\PLC;IEC;3
