(*
NPOU: 15
*)
PG	Main
FB	InterlockResetRequired
FB	ReleaseOutput
FB	EStopResetRequired
FB	LogicalDelayOff
FB	LocicalTractionSystem
FB	LocicalXYDrive
FB	LogicalPortionInterleaver
FB	LogicalStacking
FB	LogicalProductTray
FB	LogicalInfeedOutfeed
FB	LogicalRotor
FB	LogicalAirpressure
FB	ValentResetRequired
FB	LogicalSensorValid
