OPT_AddInfeedDoor,POE\Main\0_ModuleOK.GB,3,IN,38,2,Read,,SAFEBOOL,SIX77.0,,VAR_GLOBAL,GLOBAL,,
OPT_AddInfeedDoor,POE\Main\10_SignalsToPLC.GB,3,IN,103,17,Read,,SAFEBOOL,SIX77.0,,VAR_GLOBAL,GLOBAL,,
OPT_AddInfeedDoor,POE\Main\10_SignalsToPLC.GB,3,IN,58,11,Read,,SAFEBOOL,SIX77.0,,VAR_GLOBAL,GLOBAL,,
OPT_AddInfeedDoor,POE\Main\3_DoorInterlocking.GB,1,IN,38,11,Read,,SAFEBOOL,SIX77.0,,VAR_GLOBAL,GLOBAL,,
OPT_AddInfeedDoor,POE\Main\3_DoorInterlocking.GB,4,IN,37,11,Read,,SAFEBOOL,SIX77.0,,VAR_GLOBAL,GLOBAL,,
OPT_EndPiceDoor,POE\Main\0_ModuleOK.GB,3,IN,58,4,Read,,SAFEBOOL,SIX77.1,,VAR_GLOBAL,GLOBAL,,
OPT_EndPiceDoor,POE\Main\10_SignalsToPLC.GB,5,IN,108,20,Read,,SAFEBOOL,SIX77.1,,VAR_GLOBAL,GLOBAL,,
OPT_EndPiceDoor,POE\Main\3_DoorInterlocking.GB,1,IN,45,11,Read,,SAFEBOOL,SIX77.1,,VAR_GLOBAL,GLOBAL,,
OPT_OptiScan,POE\Main\0_ModuleOK.GB,3,IN,0,6,Read,,SAFEBOOL,SIX77.2,,VAR_GLOBAL,GLOBAL,,
OPT_OptiScan,POE\Main\10_SignalsToPLC.GB,5,IN,113,23,Read,,SAFEBOOL,SIX77.2,,VAR_GLOBAL,GLOBAL,,
OPT_OptiScan,POE\Main\5_OptiScan.GB,1,IN,20,10,Read,,SAFEBOOL,SIX77.2,,VAR_GLOBAL,GLOBAL,,
PLC_AirPressureEquivalentError,POE\Main\10_SignalsToPLC.GB,1,OUT,78,0,Write,,BOOL,NSQX1.5,,VAR_GLOBAL,GLOBAL,,
PLC_AirPressureEquivalentOK,POE\Main\10_SignalsToPLC.GB,3,OUT,121,0,Write,,BOOL,NSQX2.1,,VAR_GLOBAL,GLOBAL,,
PLC_CleaningMode,POE\Main\4_SlicerOutputs.GB,5,IN,41,7,Read,,BOOL,NSIX0.1,,VAR_GLOBAL,GLOBAL,,
PLC_DoorsClosed,POE\Main\10_SignalsToPLC.GB,4,OUT,40,66,Write,,BOOL,NSQX0.6,,VAR_GLOBAL,GLOBAL,,
PLC_DoorsClosedAndLocked,POE\Main\10_SignalsToPLC.GB,3,OUT,45,0,Write,,BOOL,NSQX0.5,,VAR_GLOBAL,GLOBAL,,
PLC_EnableInfeedOutfeed,POE\Main\4_SlicerOutputs.GB,10,OUT,263,59,Write,,BOOL,NSQX1.4,,VAR_GLOBAL,GLOBAL,,
PLC_EnablePortioning,POE\Main\4_SlicerOutputs.GB,6,OUT,216,63,Write,,BOOL,NSQX1.3,,VAR_GLOBAL,GLOBAL,,
PLC_EnableProductTray,POE\Main\4_SlicerOutputs.GB,8,OUT,248,60,Write,,BOOL,NSQX1.2,,VAR_GLOBAL,GLOBAL,,
PLC_EnableRotor,POE\Main\4_SlicerOutputs.GB,4,OUT,191,63,Write,,BOOL,NSQX0.7,,VAR_GLOBAL,GLOBAL,,
PLC_EnableStacking,POE\Main\4_SlicerOutputs.GB,8,OUT,232,67,Write,,BOOL,NSQX1.1,,VAR_GLOBAL,GLOBAL,,
PLC_EnableTraction,POE\Main\4_SlicerOutputs.GB,6,OUT,34,66,Write,,BOOL,NSQX1.0,,VAR_GLOBAL,GLOBAL,,
PLC_EnableXYDrive,POE\Main\4_SlicerOutputs.GB,14,OUT,417,67,Write,,BOOL,NSQX2.2,,VAR_GLOBAL,GLOBAL,,
PLC_InterlockResetRequired,POE\Main\10_SignalsToPLC.GB,3,OUT,51,20,Write,,BOOL,NSQX1.7,,VAR_GLOBAL,GLOBAL,,
PLC_LifecountIn,POE\Main\10_SignalsToPLC.GB,1,IN,99,14,Read,,WORD,NSIW2,,VAR_GLOBAL,GLOBAL,,
PLC_LifecountOut,POE\Main\10_SignalsToPLC.GB,1,OUT,100,22,Write,,WORD,NSQW4,,VAR_GLOBAL,GLOBAL,,
PLC_ModulesOK,POE\Main\0_ModuleOK.GB,2,OUT,35,75,Write,,BOOL,NSQX0.1,,VAR_GLOBAL,GLOBAL,,
PLC_OPT_AddInfeedDoor,POE\Main\10_SignalsToPLC.GB,3,OUT,107,8,Write,,BOOL,NSQX3.3,,VAR_GLOBAL,GLOBAL,,
PLC_OPT_EndPiceDoor,POE\Main\10_SignalsToPLC.GB,5,OUT,109,10,Write,,BOOL,NSQX3.4,,VAR_GLOBAL,GLOBAL,,
PLC_OPT_OptiScan,POE\Main\10_SignalsToPLC.GB,5,OUT,114,14,Write,,BOOL,NSQX3.5,,VAR_GLOBAL,GLOBAL,,
PLC_Reset,POE\Main\1_SlicerInputs.GB,1,IN,402,22,Read,,BOOL,NSIX0.0,,VAR_GLOBAL,GLOBAL,,
PLC_Reset,POE\Main\1_SlicerInputs.GB,1,IN,19,28,Read,,BOOL,NSIX0.0,,VAR_GLOBAL,GLOBAL,,
PLC_Reset,POE\Main\2_StandStillMonitoring.GB,4,IN,68,25,Read,,BOOL,NSIX0.0,,VAR_GLOBAL,GLOBAL,,
PLC_Reset,POE\Main\2_StandStillMonitoring.GB,10,IN,227,36,Read,,BOOL,NSIX0.0,,VAR_GLOBAL,GLOBAL,,
PLC_Reset,POE\Main\3_DoorInterlocking.GB,4,IN,31,22,Read,,BOOL,NSIX0.0,,VAR_GLOBAL,GLOBAL,,
PLC_ResetRequired,POE\Main\10_SignalsToPLC.GB,1,OUT,20,28,Write,,BOOL,NSQX0.4,,VAR_GLOBAL,GLOBAL,,
PLC_SafeLogicActive,POE\Main\10_SignalsToPLC.GB,1,OUT,1,31,Write,,BOOL,NSQX0.0,,VAR_GLOBAL,GLOBAL,,
PLC_SafetyOK,POE\Main\4_SlicerOutputs.GB,1,OUT,315,33,Write,,BOOL,NSQX2.0,,VAR_GLOBAL,GLOBAL,,
PLC_Standstill,POE\Main\10_SignalsToPLC.GB,1,OUT,14,24,Write,,BOOL,NSQX0.2,,VAR_GLOBAL,GLOBAL,,
PLC_StandstillOK,POE\Main\10_SignalsToPLC.GB,1,OUT,18,21,Write,,BOOL,NSQX0.3,,VAR_GLOBAL,GLOBAL,,
PLC_StandStillSensorError,POE\Main\10_SignalsToPLC.GB,3,OUT,91,0,Write,,BOOL,NSQX1.6,,VAR_GLOBAL,GLOBAL,,
PLC_UnlockDoors,POE\Main\3_DoorInterlocking.GB,4,IN,28,14,Read,,BOOL,NSIX0.2,,VAR_GLOBAL,GLOBAL,,
REL_CloseGripper1,POE\Main\4_SlicerOutputs.GB,11,OUT,67,10,Write,,BOOL,NSQX135.2,,VAR_GLOBAL,GLOBAL,,
REL_CloseGripper2,POE\Main\4_SlicerOutputs.GB,11,OUT,69,10,Write,,BOOL,NSQX135.3,,VAR_GLOBAL,GLOBAL,,
REL_InfeedEnable,POE\Main\4_SlicerOutputs.GB,9,IN,265,13,Read,,BOOL,NSQX133.0,,VAR_GLOBAL,GLOBAL,,
REL_InfeedEnable,POE\Main\4_SlicerOutputs.GB,10,OUT,79,59,Write,,BOOL,NSQX133.0,,VAR_GLOBAL,GLOBAL,,
REL_OutfeedEnable,POE\Main\4_SlicerOutputs.GB,10,OUT,75,57,Write,,BOOL,NSQX133.1,,VAR_GLOBAL,GLOBAL,,
REL_PortioningEnable,POE\Main\4_SlicerOutputs.GB,6,OUT,45,63,Write,,BOOL,NSQX134.3,,VAR_GLOBAL,GLOBAL,,
REL_PortioningEnable,POE\Main\4_SlicerOutputs.GB,7,IN,218,6,Read,,BOOL,NSQX134.3,,VAR_GLOBAL,GLOBAL,,
REL_ProductStopperDown,POE\Main\4_SlicerOutputs.GB,11,OUT,73,100,Write,,BOOL,NSQX135.1,,VAR_GLOBAL,GLOBAL,,
REL_ProductStopperUp,POE\Main\4_SlicerOutputs.GB,11,OUT,72,3,Write,,BOOL,NSQX135.0,,VAR_GLOBAL,GLOBAL,,
REL_ProductTrayEnable,POE\Main\4_SlicerOutputs.GB,8,OUT,57,59,Write,,BOOL,NSQX134.2,,VAR_GLOBAL,GLOBAL,,
REL_ProductTrayEnable,POE\Main\4_SlicerOutputs.GB,9,IN,250,5,Read,,BOOL,NSQX134.2,,VAR_GLOBAL,GLOBAL,,
REL_RotorEnable,POE\Main\4_SlicerOutputs.GB,3,IN,284,8,Read,,BOOL,NSQX132.0,,VAR_GLOBAL,GLOBAL,,
REL_RotorEnable,POE\Main\4_SlicerOutputs.GB,4,OUT,29,68,Write,,BOOL,NSQX132.0,,VAR_GLOBAL,GLOBAL,,
REL_RotorQuickstop,POE\Main\4_SlicerOutputs.GB,1,OUT,26,0,Write,,BOOL,NSQX132.1,,VAR_GLOBAL,GLOBAL,,
REL_StackingEnable,POE\Main\4_SlicerOutputs.GB,7,IN,234,6,Read,,BOOL,NSQX134.1,,VAR_GLOBAL,GLOBAL,,
REL_StackingEnable,POE\Main\4_SlicerOutputs.GB,8,OUT,51,65,Write,,BOOL,NSQX134.1,,VAR_GLOBAL,GLOBAL,,
REL_TractionEnable,POE\Main\4_SlicerOutputs.GB,5,IN,205,7,Read,,BOOL,NSQX134.0,,VAR_GLOBAL,GLOBAL,,
REL_TractionEnable,POE\Main\4_SlicerOutputs.GB,6,OUT,36,66,Write,,BOOL,NSQX134.0,,VAR_GLOBAL,GLOBAL,,
REL_UnlockDoors,POE\Main\3_DoorInterlocking.GB,3,OUT,34,78,Write,,BOOL,NSQX135.4,,VAR_GLOBAL,GLOBAL,,
REL_XRayEnable,POE\Main\5_OptiScan.GB,2,OUT,19,69,Write,,BOOL,NSQX136.2,,VAR_GLOBAL,GLOBAL,,
REL_XYDriveEnable,POE\Main\4_SlicerOutputs.GB,13,IN,437,12,Read,,BOOL,NSQX139.0,,VAR_GLOBAL,GLOBAL,,
REL_XYDriveEnable,POE\Main\4_SlicerOutputs.GB,14,OUT,419,66,Write,,BOOL,NSQX139.0,,VAR_GLOBAL,GLOBAL,,
SI_AddInfeedLeftClosed,POE\Main\1_SlicerInputs.GB,11,IN,281,0,Read,,SAFEBOOL,SIX59.4,,VAR_GLOBAL,GLOBAL,,
SI_AddInfeedLeftLocked,POE\Main\1_SlicerInputs.GB,13,IN,304,0,Read,,SAFEBOOL,SIX59.5,,VAR_GLOBAL,GLOBAL,,
SI_AddInfeedRightClosed,POE\Main\1_SlicerInputs.GB,13,IN,346,4,Read,,SAFEBOOL,SIX145.0,,VAR_GLOBAL,GLOBAL,,
SI_AddInfeedRightLocked,POE\Main\1_SlicerInputs.GB,15,IN,351,4,Read,,SAFEBOOL,SIX145.3,,VAR_GLOBAL,GLOBAL,,
SI_AirPressure1,POE\Main\1_SlicerInputs.GB,1,IN,405,16,Read,,SAFEBOOL,SIX57.0,,VAR_GLOBAL,GLOBAL,,
SI_AirPressure2,POE\Main\1_SlicerInputs.GB,1,IN,406,16,Read,,SAFEBOOL,SIX57.1,,VAR_GLOBAL,GLOBAL,,
SI_EmergencyStop,POE\Main\1_SlicerInputs.GB,1,IN,2,4,Read,,SAFEBOOL,SIX59.1,,VAR_GLOBAL,GLOBAL,,
SI_EndpiceDoorLeft,POE\Main\1_SlicerInputs.GB,15,IN,390,2,Read,,SAFEBOOL,SIX153.0,,VAR_GLOBAL,GLOBAL,,
SI_EndpiceDoorRight,POE\Main\1_SlicerInputs.GB,17,IN,394,0,Read,,SAFEBOOL,SIX153.2,,VAR_GLOBAL,GLOBAL,,
SI_ExternalSafety,POE\Main\1_SlicerInputs.GB,3,IN,246,4,Read,,SAFEBOOL,SIX73.4,,VAR_GLOBAL,GLOBAL,,
SI_InfeedDoorLeftClosed,POE\Main\1_SlicerInputs.GB,5,IN,95,4,Read,,SAFEBOOL,SIX65.2,,VAR_GLOBAL,GLOBAL,,
SI_InfeedDoorLeftLocked,POE\Main\1_SlicerInputs.GB,5,IN,93,4,Read,,SAFEBOOL,SIX58.5,,VAR_GLOBAL,GLOBAL,,
SI_InfeedDoorRightClosed,POE\Main\1_SlicerInputs.GB,5,IN,21,4,Read,,SAFEBOOL,SIX65.0,,VAR_GLOBAL,GLOBAL,,
SI_InfeedDoorRightLocked,POE\Main\1_SlicerInputs.GB,7,IN,56,4,Read,,SAFEBOOL,SIX58.4,,VAR_GLOBAL,GLOBAL,,
SI_InfeedShutter,POE\Main\1_SlicerInputs.GB,3,IN,223,4,Read,,SAFEBOOL,SIX73.2,,VAR_GLOBAL,GLOBAL,,
SI_Module10_OK,POE\Main\0_ModuleOK.GB,3,IN,6,4,Read,,SAFEBOOL,SIX17.5,,VAR_GLOBAL,GLOBAL,,
SI_Module15_OK,POE\Main\0_ModuleOK.GB,1,IN,72,7,Read,,SAFEBOOL,SIX18.0,,VAR_GLOBAL,GLOBAL,,
SI_Module2_OK,POE\Main\0_ModuleOK.GB,1,IN,1,6,Read,,SAFEBOOL,SIX17.0,,VAR_GLOBAL,GLOBAL,,
SI_Module3_OK,POE\Main\0_ModuleOK.GB,1,IN,2,6,Read,,SAFEBOOL,SIX17.1,,VAR_GLOBAL,GLOBAL,,
SI_Module4_OK,POE\Main\0_ModuleOK.GB,1,IN,3,6,Read,,SAFEBOOL,SIX17.2,,VAR_GLOBAL,GLOBAL,,
SI_Module5_OK,POE\Main\0_ModuleOK.GB,1,IN,4,6,Read,,SAFEBOOL,SIX17.3,,VAR_GLOBAL,GLOBAL,,
SI_Module6_OK,POE\Main\0_ModuleOK.GB,1,IN,5,6,Read,,SAFEBOOL,SIX17.4,,VAR_GLOBAL,GLOBAL,,
SI_Module7_OK,POE\Main\0_ModuleOK.GB,3,IN,39,6,Read,,SAFEBOOL,SIX17.6,,VAR_GLOBAL,GLOBAL,,
SI_Module8_OK,POE\Main\0_ModuleOK.GB,3,IN,59,6,Read,,SAFEBOOL,SIX17.7,,VAR_GLOBAL,GLOBAL,,
SI_OutfeedDoorLeftClosed,POE\Main\1_SlicerInputs.GB,7,IN,201,4,Read,,SAFEBOOL,SIX73.0,,VAR_GLOBAL,GLOBAL,,
SI_OutfeedDoorLeftLocked,POE\Main\1_SlicerInputs.GB,9,IN,196,4,Read,,SAFEBOOL,SIX58.7,,VAR_GLOBAL,GLOBAL,,
SI_OutfeedDoorRightClosed,POE\Main\1_SlicerInputs.GB,9,IN,149,4,Read,,SAFEBOOL,SIX65.4,,VAR_GLOBAL,GLOBAL,,
SI_OutfeedDoorRightLocked,POE\Main\1_SlicerInputs.GB,11,IN,154,4,Read,,SAFEBOOL,SIX58.6,,VAR_GLOBAL,GLOBAL,,
SI_Sensor_A,POE\Main\2_StandStillMonitoring.GB,1,IN,101,18,Read,,SAFEBOOL,SIX57.4,,VAR_GLOBAL,GLOBAL,,
SI_Sensor_A,POE\Main\2_StandStillMonitoring.GB,4,IN,75,29,Read,,SAFEBOOL,SIX57.4,,VAR_GLOBAL,GLOBAL,,
SI_Sensor_A,POE\Main\2_StandStillMonitoring.GB,7,IN,102,28,Read,,SAFEBOOL,SIX57.4,,VAR_GLOBAL,GLOBAL,,
SI_Sensor_A,POE\Main\2_StandStillMonitoring.GB,10,IN,225,34,Read,,SAFEBOOL,SIX57.4,,VAR_GLOBAL,GLOBAL,,
SI_Sensor_An,POE\Main\2_StandStillMonitoring.GB,1,IN,100,17,Read,,SAFEBOOL,SIX57.5,,VAR_GLOBAL,GLOBAL,,
SI_Sensor_An,POE\Main\2_StandStillMonitoring.GB,7,IN,103,25,Read,,SAFEBOOL,SIX57.5,,VAR_GLOBAL,GLOBAL,,
SI_Sensor_An,POE\Main\2_StandStillMonitoring.GB,7,IN,76,28,Read,,SAFEBOOL,SIX57.5,,VAR_GLOBAL,GLOBAL,,
SI_Sensor_An,POE\Main\2_StandStillMonitoring.GB,10,IN,226,33,Read,,SAFEBOOL,SIX57.5,,VAR_GLOBAL,GLOBAL,,
SI_Sensor_B,POE\Main\2_StandStillMonitoring.GB,1,IN,99,18,Read,,SAFEBOOL,SIX57.6,,VAR_GLOBAL,GLOBAL,,
SI_Sensor_B,POE\Main\2_StandStillMonitoring.GB,7,IN,77,29,Read,,SAFEBOOL,SIX57.6,,VAR_GLOBAL,GLOBAL,,
SI_Sensor_B,POE\Main\2_StandStillMonitoring.GB,10,IN,222,34,Read,,SAFEBOOL,SIX57.6,,VAR_GLOBAL,GLOBAL,,
SI_Sensor_B,POE\Main\2_StandStillMonitoring.GB,10,IN,104,26,Read,,SAFEBOOL,SIX57.6,,VAR_GLOBAL,GLOBAL,,
SI_Sensor_Bn,POE\Main\2_StandStillMonitoring.GB,1,IN,98,17,Read,,SAFEBOOL,SIX57.7,,VAR_GLOBAL,GLOBAL,,
SI_Sensor_Bn,POE\Main\2_StandStillMonitoring.GB,7,IN,78,28,Read,,SAFEBOOL,SIX57.7,,VAR_GLOBAL,GLOBAL,,
SI_Sensor_Bn,POE\Main\2_StandStillMonitoring.GB,10,IN,105,25,Read,,SAFEBOOL,SIX57.7,,VAR_GLOBAL,GLOBAL,,
SI_Sensor_Bn,POE\Main\2_StandStillMonitoring.GB,10,IN,223,33,Read,,SAFEBOOL,SIX57.7,,VAR_GLOBAL,GLOBAL,,
SI_XRayShutterClosed,POE\Main\5_OptiScan.GB,1,IN,10,7,Read,,SAFEBOOL,SIX70.2,,VAR_GLOBAL,GLOBAL,,
SI_XRayShutterEquivalentOK,POE\Main\5_OptiScan.GB,1,IN,48,10,Read,,SAFEBOOL,SIX70.6,,VAR_GLOBAL,GLOBAL,,
SO_CloseGripper1,POE\Main\4_SlicerOutputs.GB,11,OUT,66,11,Write,,SAFEBOOL,SQX18.2,,VAR_GLOBAL,GLOBAL,,
SO_CloseGripper2,POE\Main\4_SlicerOutputs.GB,11,OUT,68,11,Write,,SAFEBOOL,SQX18.3,,VAR_GLOBAL,GLOBAL,,
SO_InfeedEnable,POE\Main\4_SlicerOutputs.GB,9,IN,264,11,Read,,SAFEBOOL,SQX16.0,,VAR_GLOBAL,GLOBAL,,
SO_InfeedEnable,POE\Main\4_SlicerOutputs.GB,10,OUT,78,60,Write,,SAFEBOOL,SQX16.0,,VAR_GLOBAL,GLOBAL,,
SO_OutfeedEnable,POE\Main\4_SlicerOutputs.GB,10,OUT,74,58,Write,,SAFEBOOL,SQX16.1,,VAR_GLOBAL,GLOBAL,,
SO_PortioningEnable,POE\Main\4_SlicerOutputs.GB,5,IN,217,7,Read,,SAFEBOOL,SQX13.3,,VAR_GLOBAL,GLOBAL,,
SO_PortioningEnable,POE\Main\4_SlicerOutputs.GB,6,OUT,44,64,Write,,SAFEBOOL,SQX13.3,,VAR_GLOBAL,GLOBAL,,
SO_ProductStopperDown,POE\Main\4_SlicerOutputs.GB,11,OUT,71,1,Write,,SAFEBOOL,SQX18.1,,VAR_GLOBAL,GLOBAL,,
SO_ProductStopperUp,POE\Main\4_SlicerOutputs.GB,11,OUT,70,4,Write,,SAFEBOOL,SQX18.0,,VAR_GLOBAL,GLOBAL,,
SO_ProductTrayEnable,POE\Main\4_SlicerOutputs.GB,7,IN,249,6,Read,,SAFEBOOL,SQX13.2,,VAR_GLOBAL,GLOBAL,,
SO_ProductTrayEnable,POE\Main\4_SlicerOutputs.GB,8,OUT,56,60,Write,,SAFEBOOL,SQX13.2,,VAR_GLOBAL,GLOBAL,,
SO_RotorEnable,POE\Main\4_SlicerOutputs.GB,4,OUT,28,69,Write,,SAFEBOOL,SQX14.0,,VAR_GLOBAL,GLOBAL,,
SO_RotorQuickstop,POE\Main\4_SlicerOutputs.GB,1,OUT,25,0,Write,,SAFEBOOL,SQX14.1,,VAR_GLOBAL,GLOBAL,,
SO_StackingEnable,POE\Main\4_SlicerOutputs.GB,7,IN,233,7,Read,,SAFEBOOL,SQX13.1,,VAR_GLOBAL,GLOBAL,,
SO_StackingEnable,POE\Main\4_SlicerOutputs.GB,8,OUT,50,66,Write,,SAFEBOOL,SQX13.1,,VAR_GLOBAL,GLOBAL,,
SO_TractionEnable,POE\Main\4_SlicerOutputs.GB,5,IN,197,8,Read,,SAFEBOOL,SQX13.0,,VAR_GLOBAL,GLOBAL,,
SO_TractionEnable,POE\Main\4_SlicerOutputs.GB,6,OUT,35,67,Write,,SAFEBOOL,SQX13.0,,VAR_GLOBAL,GLOBAL,,
SO_UnlockDoors,POE\Main\3_DoorInterlocking.GB,3,OUT,33,79,Write,,SAFEBOOL,SQX18.4,,VAR_GLOBAL,GLOBAL,,
SO_XRayEnable,POE\Main\5_OptiScan.GB,2,OUT,18,70,Write,,SAFEBOOL,SQX19.2,,VAR_GLOBAL,GLOBAL,,
SO_XYDriveEnable,POE\Main\4_SlicerOutputs.GB,13,IN,435,11,Read,,SAFEBOOL,SQX24.0,,VAR_GLOBAL,GLOBAL,,
SO_XYDriveEnable,POE\Main\4_SlicerOutputs.GB,14,OUT,418,66,Write,,SAFEBOOL,SQX24.0,,VAR_GLOBAL,GLOBAL,,
