AddInfeedClosed,POE\Main\1_SlicerInputs.GB,12,,344,44,,,,,,VAR,FB,,
AddInfeedLeftClosed,POE\Main\1_SlicerInputs.GB,10,,280,44,,,,,,VAR,FB,,
AddInfeedLeftLocked,POE\Main\1_SlicerInputs.GB,12,,299,44,,,,,,VAR,FB,,
AddInfeedLocked,POE\Main\1_SlicerInputs.GB,14,,345,44,,,,,,VAR,FB,,
Direct_EnableInfeedOutfeed,POE\Main\4_SlicerOutputs.GB,9,IN,307,3,Read,,BOOL,,,VAR,LOCAL,,
Direct_EnableInfeedOutfeed,POE\Main\4_SlicerOutputs.GB,10,OUT,62,56,Write,,BOOL,,,VAR,LOCAL,,
Direct_EnablePortioning,POE\Main\4_SlicerOutputs.GB,6,OUT,43,61,Write,,BOOL,,,VAR,LOCAL,,
Direct_EnablePortioning,POE\Main\4_SlicerOutputs.GB,7,IN,292,5,Read,,BOOL,,,VAR,LOCAL,,
Direct_EnableProductTray,POE\Main\4_SlicerOutputs.GB,8,OUT,55,56,Write,,BOOL,,,VAR,LOCAL,,
Direct_EnableProductTray,POE\Main\4_SlicerOutputs.GB,9,IN,302,4,Read,,BOOL,,,VAR,LOCAL,,
Direct_EnableStacking,POE\Main\4_SlicerOutputs.GB,7,IN,297,5,Read,,BOOL,,,VAR,LOCAL,,
Direct_EnableStacking,POE\Main\4_SlicerOutputs.GB,8,OUT,49,63,Write,,BOOL,,,VAR,LOCAL,,
Direct_EnableTraction,POE\Main\4_SlicerOutputs.GB,5,IN,287,6,Read,,BOOL,,,VAR,LOCAL,,
Direct_EnableTraction,POE\Main\4_SlicerOutputs.GB,6,OUT,204,64,Write,,BOOL,,,VAR,LOCAL,,
Direct_EnableXYDrive,POE\Main\4_SlicerOutputs.GB,13,IN,438,10,Read,,BOOL,,,VAR,LOCAL,,
Direct_EnableXYDrive,POE\Main\4_SlicerOutputs.GB,14,OUT,420,63,Write,,BOOL,,,VAR,LOCAL,,
DoorLocking,POE\Main\3_DoorInterlocking.GB,0,,92,94,,,,,,VAR,FB,,
Egn_TestSensors,POE\Main\2_StandStillMonitoring.GB,3,,207,9,,,,,,VAR,FB,,
Egp_SensorA,POE\Main\2_StandStillMonitoring.GB,0,,208,36,,,,,,VAR,FB,,
Egp_SensorAn,POE\Main\2_StandStillMonitoring.GB,0,,209,36,,,,,,VAR,FB,,
Egp_SensorB,POE\Main\2_StandStillMonitoring.GB,0,,210,36,,,,,,VAR,FB,,
Egp_SensorBn,POE\Main\2_StandStillMonitoring.GB,0,,211,36,,,,,,VAR,FB,,
EmergencyStop,POE\Main\1_SlicerInputs.GB,0,,12,44,,,,,,VAR,FB,,
EndpiceDoorLeft,POE\Main\1_SlicerInputs.GB,14,,380,44,,,,,,VAR,FB,,
EndpiceDoorRight,POE\Main\1_SlicerInputs.GB,16,,367,44,,,,,,VAR,FB,,
EStopResetRequired_1,POE\Main\1_SlicerInputs.GB,0,,258,84,,,,,,VAR,FB,,
ExternalSafety,POE\Main\1_SlicerInputs.GB,0,,244,44,,,,,,VAR,FB,,
InfeedDoorLeftClosed,POE\Main\1_SlicerInputs.GB,2,,78,44,,,,,,VAR,FB,,
InfeedDoorLeftLocked,POE\Main\1_SlicerInputs.GB,4,,91,44,,,,,,VAR,FB,,
InfeedDoorRightClosed,POE\Main\1_SlicerInputs.GB,4,,33,44,,,,,,VAR,FB,,
InfeedDoorRightLocked,POE\Main\1_SlicerInputs.GB,6,,54,44,,,,,,VAR,FB,,
InfeedShutter,POE\Main\1_SlicerInputs.GB,2,,220,44,,,,,,VAR,FB,,
InterlockResetRequired_1,POE\Main\3_DoorInterlocking.GB,0,,95,39,,,,,,VAR,FB,,
LocicalTractionSystem,POE\Main\4_SlicerOutputs.GB,4,,382,39,,,,,,VAR,FB,,
LocicalXYDrive_1,POE\Main\4_SlicerOutputs.GB,12,,458,41,,,,,,VAR,FB,,
LogicalAirpressure,POE\Main\1_SlicerInputs.GB,0,,413,43,,,,,,VAR,FB,,
LogicalInfeedOutfeed,POE\Main\4_SlicerOutputs.GB,8,,102,43,,,,,,VAR,FB,,
LogicalPortionInterleave,POE\Main\4_SlicerOutputs.GB,4,,101,43,,,,,,VAR,FB,,
LogicalProductTray,POE\Main\4_SlicerOutputs.GB,6,,351,44,,,,,,VAR,FB,,
LogicalRotor,POE\Main\4_SlicerOutputs.GB,2,,407,42,,,,,,VAR,FB,,
LogicalSensorValid,POE\Main\2_StandStillMonitoring.GB,9,,235,75,,,,,,VAR,FB,,
LogicalStacking,POE\Main\4_SlicerOutputs.GB,6,,367,40,,,,,,VAR,FB,,
m_AirPressureEquivalent,POE\Main\10_SignalsToPLC.GB,1,IN,75,5,Read,,BOOL,,,VAR,LOCAL,,
m_AirPressureEquivalent,POE\Main\10_SignalsToPLC.GB,1,IN,77,9,Read,,BOOL,,,VAR,LOCAL,,
m_AirPressureEquivalent,POE\Main\1_SlicerInputs.GB,1,OUT,419,0,Write,,BOOL,,,VAR,LOCAL,,
m_AirPressureResetRequired,POE\Main\10_SignalsToPLC.GB,1,IN,26,4,Read,,BOOL,,,VAR,LOCAL,,
m_AirPressureResetRequired,POE\Main\1_SlicerInputs.GB,1,OUT,403,0,Write,,BOOL,,,VAR,LOCAL,,
m_EStopResetRequired,POE\Main\10_SignalsToPLC.GB,1,IN,25,4,Read,,BOOL,,,VAR,LOCAL,,
m_EStopResetRequired,POE\Main\1_SlicerInputs.GB,2,OUT,261,57,Write,,BOOL,,,VAR,LOCAL,,
m_InterlockResetRequired,POE\Main\10_SignalsToPLC.GB,3,IN,27,4,Read,,BOOL,,,VAR,LOCAL,,
m_InterlockResetRequired,POE\Main\3_DoorInterlocking.GB,2,OUT,36,0,Write,,BOOL,,,VAR,LOCAL,,
m_SensorResetRequired,POE\Main\10_SignalsToPLC.GB,1,IN,79,7,Read,,BOOL,,,VAR,LOCAL,,
m_SensorResetRequired,POE\Main\2_StandStillMonitoring.GB,11,OUT,252,49,Write,,BOOL,,,VAR,LOCAL,,
OutfeedDoorLeftClosed,POE\Main\1_SlicerInputs.GB,6,,194,44,,,,,,VAR,FB,,
OutfeedDoorLeftLocked,POE\Main\1_SlicerInputs.GB,8,,195,44,,,,,,VAR,FB,,
OutfeedDoorRightClosed,POE\Main\1_SlicerInputs.GB,8,,147,44,,,,,,VAR,FB,,
OutfeedDoorRightLocked,POE\Main\1_SlicerInputs.GB,10,,148,44,,,,,,VAR,FB,,
R_CloseGripper1,POE\Main\4_SlicerOutputs.GB,10,,184,43,,,,,,VAR,FB,,
R_CloseGripper2,POE\Main\4_SlicerOutputs.GB,10,,189,43,,,,,,VAR,FB,,
R_InfeedOutfeed,POE\Main\4_SlicerOutputs.GB,8,,160,87,,,,,,VAR,FB,,
R_Portioning,POE\Main\4_SlicerOutputs.GB,4,,124,84,,,,,,VAR,FB,,
R_ProductStopperDown,POE\Main\4_SlicerOutputs.GB,10,,179,45,,,,,,VAR,FB,,
R_ProductStopperUp,POE\Main\4_SlicerOutputs.GB,8,,174,45,,,,,,VAR,FB,,
R_ProductTray,POE\Main\4_SlicerOutputs.GB,6,,153,87,,,,,,VAR,FB,,
R_RotorEnable,POE\Main\4_SlicerOutputs.GB,2,,139,85,,,,,,VAR,FB,,
R_RotorQuickstop,POE\Main\4_SlicerOutputs.GB,0,,132,52,,,,,,VAR,FB,,
R_Stacking,POE\Main\4_SlicerOutputs.GB,6,,146,82,,,,,,VAR,FB,,
R_TractionSystem,POE\Main\4_SlicerOutputs.GB,4,,117,83,,,,,,VAR,FB,,
R_UnlockDoors,POE\Main\3_DoorInterlocking.GB,0,,139,77,,,,,,VAR,FB,,
R_XRay,POE\Main\5_OptiScan.GB,0,,44,86,,,,,,VAR,FB,,
R_XYDrive,POE\Main\4_SlicerOutputs.GB,12,,434,86,,,,,,VAR,FB,,
RS_SensorA,POE\Main\2_StandStillMonitoring.GB,3,,199,47,,,,,,VAR,FB,,
RS_SensorAn,POE\Main\2_StandStillMonitoring.GB,6,,200,47,,,,,,VAR,FB,,
RS_SensorB,POE\Main\2_StandStillMonitoring.GB,6,,201,47,,,,,,VAR,FB,,
RS_SensorBn,POE\Main\2_StandStillMonitoring.GB,6,,202,47,,,,,,VAR,FB,,
RS_SensorsOK,POE\Main\2_StandStillMonitoring.GB,3,,198,71,,,,,,VAR,FB,,
s_AddInfeedDoorLeftClosed,POE\Main\10_SignalsToPLC.GB,3,IN,66,3,Read,,SAFEBOOL,,,VAR,LOCAL,,
s_AddInfeedDoorLeftClosed,POE\Main\1_SlicerInputs.GB,11,OUT,268,0,Write,,SAFEBOOL,,,VAR,LOCAL,,
s_AddInfeedDoorLeftClosed,POE\Main\3_DoorInterlocking.GB,1,IN,41,1,Read,,SAFEBOOL,,,VAR,LOCAL,,
s_AddInfeedDoorLeftLocked,POE\Main\1_SlicerInputs.GB,13,OUT,287,0,Write,,SAFEBOOL,,,VAR,LOCAL,,
s_AddInfeedDoorLeftLocked,POE\Main\3_DoorInterlocking.GB,4,IN,39,1,Read,,SAFEBOOL,,,VAR,LOCAL,,
s_AddInfeedDoorRightClosed,POE\Main\10_SignalsToPLC.GB,3,IN,67,4,Read,,SAFEBOOL,,,VAR,LOCAL,,
s_AddInfeedDoorRightClosed,POE\Main\1_SlicerInputs.GB,13,OUT,315,0,Write,,SAFEBOOL,,,VAR,LOCAL,,
s_AddInfeedDoorRightClosed,POE\Main\3_DoorInterlocking.GB,1,IN,42,2,Read,,SAFEBOOL,,,VAR,LOCAL,,
s_AddInfeedDoorRightLocked,POE\Main\1_SlicerInputs.GB,15,OUT,321,0,Write,,SAFEBOOL,,,VAR,LOCAL,,
s_AddInfeedDoorRightLocked,POE\Main\3_DoorInterlocking.GB,4,IN,40,0,Read,,SAFEBOOL,,,VAR,LOCAL,,
s_AirPressure,POE\Main\1_SlicerInputs.GB,1,OUT,404,0,Write,,SAFEBOOL,,,VAR,LOCAL,,
s_AirPressure,POE\Main\4_SlicerOutputs.GB,1,IN,19,9,Read,,SAFEBOOL,,,VAR,LOCAL,,
s_AirPressure,POE\Main\4_SlicerOutputs.GB,5,IN,40,13,Read,,SAFEBOOL,,,VAR,LOCAL,,
s_AirPressure,POE\Main\4_SlicerOutputs.GB,9,IN,61,15,Read,,SAFEBOOL,,,VAR,LOCAL,,
s_DoorsClosedAndLocked,POE\Main\10_SignalsToPLC.GB,3,IN,49,8,Read,,SAFEBOOL,,,VAR,LOCAL,,
s_DoorsClosedAndLocked,POE\Main\3_DoorInterlocking.GB,2,OUT,32,3,Write,,SAFEBOOL,,,VAR,LOCAL,,
s_DoorsClosedAndLocked,POE\Main\4_SlicerOutputs.GB,1,IN,20,7,Read,,SAFEBOOL,,,VAR,LOCAL,,
s_EmergencyStop,POE\Main\1_SlicerInputs.GB,1,OUT,14,1,Write,,SAFEBOOL,,,VAR,LOCAL,,
s_EmergencyStop,POE\Main\4_SlicerOutputs.GB,1,IN,18,8,Read,,SAFEBOOL,,,VAR,LOCAL,,
s_EmergencyStop,POE\Main\4_SlicerOutputs.GB,5,IN,39,8,Read,,SAFEBOOL,,,VAR,LOCAL,,
s_EmergencyStop,POE\Main\4_SlicerOutputs.GB,9,IN,60,10,Read,,SAFEBOOL,,,VAR,LOCAL,,
s_EndpiceDoorLeft,POE\Main\1_SlicerInputs.GB,15,OUT,400,0,Write,,SAFEBOOL,,,VAR,LOCAL,,
s_EndpiceDoorLeft,POE\Main\3_DoorInterlocking.GB,1,IN,43,11,Read,,SAFEBOOL,,,VAR,LOCAL,,
s_EndpiceDoorRight,POE\Main\1_SlicerInputs.GB,17,OUT,399,0,Write,,SAFEBOOL,,,VAR,LOCAL,,
s_EndpiceDoorRight,POE\Main\3_DoorInterlocking.GB,1,IN,44,12,Read,,SAFEBOOL,,,VAR,LOCAL,,
s_ExternalSafety,POE\Main\1_SlicerInputs.GB,3,OUT,255,0,Write,,SAFEBOOL,,,VAR,LOCAL,,
s_ExternalSafety,POE\Main\4_SlicerOutputs.GB,1,IN,21,8,Read,,SAFEBOOL,,,VAR,LOCAL,,
s_FirstCycle,POE\Main\2_StandStillMonitoring.GB,1,OUT,280,38,Write,,SAFEBOOL,,,VAR,LOCAL,,
s_FirstCycle,POE\Main\2_StandStillMonitoring.GB,4,IN,66,22,Read,,SAFEBOOL,,,VAR,LOCAL,,
s_InfeedDoorLeftClosed,POE\Main\10_SignalsToPLC.GB,3,IN,31,25,Read,,SAFEBOOL,,,VAR,LOCAL,,
s_InfeedDoorLeftClosed,POE\Main\1_SlicerInputs.GB,5,OUT,112,0,Write,,SAFEBOOL,,,VAR,LOCAL,,
s_InfeedDoorLeftClosed,POE\Main\3_DoorInterlocking.GB,1,IN,20,7,Read,,SAFEBOOL,,,VAR,LOCAL,,
s_InfeedDoorLeftLocked,POE\Main\1_SlicerInputs.GB,5,OUT,113,0,Write,,SAFEBOOL,,,VAR,LOCAL,,
s_InfeedDoorLeftLocked,POE\Main\3_DoorInterlocking.GB,4,IN,25,6,Read,,SAFEBOOL,,,VAR,LOCAL,,
s_InfeedDoorRightClosed,POE\Main\10_SignalsToPLC.GB,3,IN,30,23,Read,,SAFEBOOL,,,VAR,LOCAL,,
s_InfeedDoorRightClosed,POE\Main\1_SlicerInputs.GB,5,OUT,42,0,Write,,SAFEBOOL,,,VAR,LOCAL,,
s_InfeedDoorRightClosed,POE\Main\3_DoorInterlocking.GB,1,IN,19,5,Read,,SAFEBOOL,,,VAR,LOCAL,,
s_InfeedDoorRightLocked,POE\Main\1_SlicerInputs.GB,7,OUT,111,0,Write,,SAFEBOOL,,,VAR,LOCAL,,
s_InfeedDoorRightLocked,POE\Main\3_DoorInterlocking.GB,1,IN,24,5,Read,,SAFEBOOL,,,VAR,LOCAL,,
s_InfeedShutter,POE\Main\1_SlicerInputs.GB,3,OUT,231,0,Write,,SAFEBOOL,,,VAR,LOCAL,,
s_InfeedShutter,POE\Main\4_SlicerOutputs.GB,7,IN,58,15,Read,,SAFEBOOL,,,VAR,LOCAL,,
s_Modules_OK,POE\Main\0_ModuleOK.GB,1,OUT,25,0,Write,,SAFEBOOL,,,VAR,LOCAL,,
s_Modules_OK,POE\Main\4_SlicerOutputs.GB,1,IN,104,8,Read,,SAFEBOOL,,,VAR,LOCAL,,
s_NoDoorUnlockRequest,POE\Main\3_DoorInterlocking.GB,2,OUT,157,8,Write,,SAFEBOOL,,,VAR,LOCAL,,
s_NoDoorUnlockRequest,POE\Main\4_SlicerOutputs.GB,1,IN,392,5,Read,,SAFEBOOL,,,VAR,LOCAL,,
s_NoDoorUnlockRequest,POE\Main\4_SlicerOutputs.GB,3,IN,324,15,Read,,SAFEBOOL,,,VAR,LOCAL,,
s_NoDoorUnlockRequest,POE\Main\4_SlicerOutputs.GB,5,IN,385,4,Read,,SAFEBOOL,,,VAR,LOCAL,,
s_NoDoorUnlockRequest,POE\Main\4_SlicerOutputs.GB,7,IN,375,8,Read,,SAFEBOOL,,,VAR,LOCAL,,
s_NoDoorUnlockRequest,POE\Main\4_SlicerOutputs.GB,7,IN,354,10,Read,,SAFEBOOL,,,VAR,LOCAL,,
s_NoDoorUnlockRequest,POE\Main\4_SlicerOutputs.GB,11,IN,333,4,Read,,SAFEBOOL,,,VAR,LOCAL,,
s_NoDoorUnlockRequest,POE\Main\4_SlicerOutputs.GB,11,IN,344,6,Read,,SAFEBOOL,,,VAR,LOCAL,,
s_NoDoorUnlockRequest,POE\Main\4_SlicerOutputs.GB,11,IN,343,6,Read,,SAFEBOOL,,,VAR,LOCAL,,
s_NoDoorUnlockRequest,POE\Main\4_SlicerOutputs.GB,11,IN,334,4,Read,,SAFEBOOL,,,VAR,LOCAL,,
s_NoDoorUnlockRequest,POE\Main\4_SlicerOutputs.GB,13,IN,421,7,Read,,SAFEBOOL,,,VAR,LOCAL,,
s_OutfeedDoorLeftClosed,POE\Main\10_SignalsToPLC.GB,3,IN,33,23,Read,,SAFEBOOL,,,VAR,LOCAL,,
s_OutfeedDoorLeftClosed,POE\Main\1_SlicerInputs.GB,7,OUT,206,0,Write,,SAFEBOOL,,,VAR,LOCAL,,
s_OutfeedDoorLeftClosed,POE\Main\3_DoorInterlocking.GB,1,IN,22,5,Read,,SAFEBOOL,,,VAR,LOCAL,,
s_OutfeedDoorLeftLocked,POE\Main\1_SlicerInputs.GB,9,OUT,207,0,Write,,SAFEBOOL,,,VAR,LOCAL,,
s_OutfeedDoorLeftLocked,POE\Main\3_DoorInterlocking.GB,4,IN,27,4,Read,,SAFEBOOL,,,VAR,LOCAL,,
s_OutfeedDoorRightClosed,POE\Main\10_SignalsToPLC.GB,3,IN,32,21,Read,,SAFEBOOL,,,VAR,LOCAL,,
s_OutfeedDoorRightClosed,POE\Main\1_SlicerInputs.GB,9,OUT,159,0,Write,,SAFEBOOL,,,VAR,LOCAL,,
s_OutfeedDoorRightClosed,POE\Main\3_DoorInterlocking.GB,1,IN,21,3,Read,,SAFEBOOL,,,VAR,LOCAL,,
s_OutfeedDoorRightLocked,POE\Main\1_SlicerInputs.GB,11,OUT,160,0,Write,,SAFEBOOL,,,VAR,LOCAL,,
s_OutfeedDoorRightLocked,POE\Main\3_DoorInterlocking.GB,4,IN,26,3,Read,,SAFEBOOL,,,VAR,LOCAL,,
s_RotorMoving,POE\Main\2_StandStillMonitoring.GB,2,OUT,92,48,Write,,SAFEBOOL,,,VAR,LOCAL,,
s_RotorMoving,POE\Main\4_SlicerOutputs.GB,3,IN,110,22,Read,,SAFEBOOL,,,VAR,LOCAL,,
s_RotorStandstill,POE\Main\10_SignalsToPLC.GB,1,IN,13,11,Read,,SAFEBOOL,,,VAR,LOCAL,,
s_RotorStandstill,POE\Main\2_StandStillMonitoring.GB,10,OUT,97,23,Write,,SAFEBOOL,,,VAR,LOCAL,,
s_RotorStandstill,POE\Main\3_DoorInterlocking.GB,1,IN,23,11,Read,,SAFEBOOL,,,VAR,LOCAL,,
s_SafetyOK,POE\Main\4_SlicerOutputs.GB,1,IN,24,16,Read,,SAFEBOOL,,,VAR,LOCAL,,
s_SafetyOK,POE\Main\4_SlicerOutputs.GB,1,IN,311,13,Read,,SAFEBOOL,,,VAR,LOCAL,,
s_SafetyOK,POE\Main\4_SlicerOutputs.GB,1,OUT,22,3,Write,,SAFEBOOL,,,VAR,LOCAL,,
s_SafetyOK,POE\Main\4_SlicerOutputs.GB,3,IN,192,13,Read,,SAFEBOOL,,,VAR,LOCAL,,
s_SafetyOK,POE\Main\4_SlicerOutputs.GB,3,IN,109,26,Read,,SAFEBOOL,,,VAR,LOCAL,,
s_SafetyOK,POE\Main\4_SlicerOutputs.GB,5,IN,32,15,Read,,SAFEBOOL,,,VAR,LOCAL,,
s_SafetyOK,POE\Main\4_SlicerOutputs.GB,5,IN,38,15,Read,,SAFEBOOL,,,VAR,LOCAL,,
s_SafetyOK,POE\Main\4_SlicerOutputs.GB,7,IN,47,14,Read,,SAFEBOOL,,,VAR,LOCAL,,
s_SafetyOK,POE\Main\4_SlicerOutputs.GB,7,IN,53,21,Read,,SAFEBOOL,,,VAR,LOCAL,,
s_SafetyOK,POE\Main\4_SlicerOutputs.GB,11,IN,64,17,Read,,SAFEBOOL,,,VAR,LOCAL,,
s_SafetyOK,POE\Main\4_SlicerOutputs.GB,11,IN,76,15,Read,,SAFEBOOL,,,VAR,LOCAL,,
s_SafetyOK,POE\Main\4_SlicerOutputs.GB,11,IN,107,17,Read,,SAFEBOOL,,,VAR,LOCAL,,
s_SafetyOK,POE\Main\4_SlicerOutputs.GB,11,IN,77,15,Read,,SAFEBOOL,,,VAR,LOCAL,,
s_SafetyOK,POE\Main\4_SlicerOutputs.GB,13,IN,415,18,Read,,SAFEBOOL,,,VAR,LOCAL,,
s_SafetyOK,POE\Main\5_OptiScan.GB,1,IN,16,10,Read,,SAFEBOOL,,,VAR,LOCAL,,
s_SafetyShutterXRay,POE\Main\5_OptiScan.GB,1,IN,17,8,Read,,SAFEBOOL,,,VAR,LOCAL,,
s_SafetyShutterXRay,POE\Main\5_OptiScan.GB,1,OUT,14,0,Write,,SAFEBOOL,,,VAR,LOCAL,,
s_SensorsValid,POE\Main\10_SignalsToPLC.GB,1,IN,19,14,Read,,SAFEBOOL,,,VAR,LOCAL,,
s_SensorsValid,POE\Main\10_SignalsToPLC.GB,3,IN,82,7,Read,,SAFEBOOL,,,VAR,LOCAL,,
s_SensorsValid,POE\Main\2_StandStillMonitoring.GB,5,OUT,84,0,Write,,SAFEBOOL,,,VAR,LOCAL,,
s_SensorsValid,POE\Main\2_StandStillMonitoring.GB,10,IN,96,20,Read,,SAFEBOOL,,,VAR,LOCAL,,
s_SensorsValid,POE\Main\4_SlicerOutputs.GB,3,IN,409,24,Read,,SAFEBOOL,,,VAR,LOCAL,,
s_SensorsValid,POE\Main\4_SlicerOutputs.GB,3,IN,469,13,Read,,SAFEBOOL,,,VAR,LOCAL,,
s_Standstill,POE\Main\2_StandStillMonitoring.GB,2,OUT,93,51,Write,,SAFEBOOL,,,VAR,LOCAL,,
s_Standstill,POE\Main\2_StandStillMonitoring.GB,4,IN,79,10,Read,,SAFEBOOL,,,VAR,LOCAL,,
s_Standstill,POE\Main\2_StandStillMonitoring.GB,4,IN,67,22,Read,,SAFEBOOL,,,VAR,LOCAL,,
s_Standstill,POE\Main\2_StandStillMonitoring.GB,4,IN,58,17,Read,,SAFEBOOL,,,VAR,LOCAL,,
s_Standstill,POE\Main\2_StandStillMonitoring.GB,7,IN,107,27,Read,,SAFEBOOL,,,VAR,LOCAL,,
s_Standstill,POE\Main\2_StandStillMonitoring.GB,10,IN,95,20,Read,,SAFEBOOL,,,VAR,LOCAL,,
s_Standstill,POE\Main\2_StandStillMonitoring.GB,10,IN,106,27,Read,,SAFEBOOL,,,VAR,LOCAL,,
s_TestSensors,POE\Main\2_StandStillMonitoring.GB,4,IN,82,73,Read,,SAFEBOOL,,,VAR,LOCAL,,
s_TestSensors,POE\Main\2_StandStillMonitoring.GB,4,IN,70,5,Read,,SAFEBOOL,,,VAR,LOCAL,,
s_TestSensors,POE\Main\2_StandStillMonitoring.GB,4,IN,62,22,Read,,SAFEBOOL,,,VAR,LOCAL,,
s_TestSensors,POE\Main\2_StandStillMonitoring.GB,4,OUT,61,0,Write,,SAFEBOOL,,,VAR,LOCAL,,
s_TestSensors1,POE\Main\2_StandStillMonitoring.GB,4,IN,64,16,Read,,SAFEBOOL,,,VAR,LOCAL,,
s_TestSensors1,POE\Main\2_StandStillMonitoring.GB,4,OUT,63,36,Write,,SAFEBOOL,,,VAR,LOCAL,,
SafetyShutterXRay,POE\Main\5_OptiScan.GB,0,,38,43,,,,,,VAR,FB,,
TOF_RotorMoving,POE\Main\2_StandStillMonitoring.GB,0,,213,96,,,,,,VAR,FB,,
TOF_TestSensors,POE\Main\2_StandStillMonitoring.GB,3,,206,92,,,,,,VAR,FB,,
TON_1ms,POE\Main\3_DoorInterlocking.GB,3,,106,69,,,,,,VAR,FB,,
TON_S_1,POE\Main\2_StandStillMonitoring.GB,3,,267,14,,,,,,VAR,FB,,
TON_S_CheckSensors,POE\Main\2_StandStillMonitoring.GB,3,,195,82,,,,,,VAR,FB,,
TON_S_SafeOK,POE\Main\4_SlicerOutputs.GB,0,,320,72,,,,,,VAR,FB,,
TON_S_UnlockDoor,POE\Main\3_DoorInterlocking.GB,0,,145,64,,,,,,VAR,FB,,
TON_SafeLogicActive,POE\Main\10_SignalsToPLC.GB,0,,6,34,,,,,,VAR,FB,,
TP_FirstCycle,POE\Main\2_StandStillMonitoring.GB,0,,285,37,,,,,,VAR,FB,,
