(********************************************************************************************************)
(* Object name: CFS_DT, Function OUTDandT																*)
(* Author: Samuel Otto 																					*)
(* Site: B&R Bad Homburg 																				*)
(* Created: 30-nov-2010 																				*)
(* Restriction: No restrictions 																		*)
(* Description: Function for getting date an time in strings in format '11:49:13', '01.12.10'			*)
(*------------------------------------------------------------------------------------------------------*)
(* Version V2.01 and lower	---	--- 				Development tool: B&R Automation Studio V2.5.0.21 	*)
(* Library written in C																					*)
(* No information available 																			*)
(* 																										*)
(*------------------------------------------------------------------------------------------------------*)
(* Version 2.10	30-nov-2010	Samuel Otto				Development tool: B&R Automation Studio V3.0.81.18	*)
(*	Changes:																							*)
(* 		- Task convertet to programming language ST														*)
(*		- deletet usless status-variables																*)
(*		- check for nullpointer																			*)
(*		- changed internal structure, because of some pointer-architectures are in ST not possibele		*)
(*		- changed C++-Style Comments '//' to "bracket-asterix"-comments for								*)
(*			compatibility to AS V2.7																	*)
(*	Bugfixes:																							*)
(*		- If DTGetTime_0 failes, their status was not returned to the calling task						*)
(*		  Now this status is returned to calling task													*)
(*																										*)
(*----------------------------------------------------------------------------------------------------------------------------------------      *)
(* Version 2.11.0   07-feb-2011  Torsten Mokrow (B&R TB-Mitte)                                         *)
(* Dependencies to library 'AsString' changed to 'AsBrStr', renamed all used function calls *)
(* Development tool: B&R Automation Studio V3.0.81.23 (SP02)                                          *)
(*----------------------------------------------------------------------------------------------------------------------------------------      *)
(********************************************************************************************************)